{
    "version": "1.8.0",
    "checked": {
        "posout_le_no_header.fau": {
            "bbox": {
                "min_n": 696417706,
                "min_e": 52848033,
                "max_n": 696424087,
                "max_e": 52866209
            },
            "nr_of_flagged_outliers": 1,
            "nr_of_unflagged_outliers": 0,
            "nr_of_flagged_duplicates": 0,
            "nr_of_unflagged_duplicates": 0
        },
        "posout_le_with_header.fau": {
            "bbox": {
                "min_n": 613723607,
                "min_e": 62851187,
                "max_n": 613724272,
                "max_e": 62858062
            },
            "nr_of_flagged_outliers": 4,
            "nr_of_unflagged_outliers": 0,
            "nr_of_flagged_duplicates": 1,
            "nr_of_unflagged_duplicates": 0
        },
        "valid_le_no_header.fau": {
            "bbox": {
                "min_n": 696397666,
                "min_e": 52828028,
                "max_n": 696404047,
                "max_e": 52846204
            },
            "nr_of_flagged_outliers": 0,
            "nr_of_unflagged_outliers": 0,
            "nr_of_flagged_duplicates": 0,
            "nr_of_unflagged_duplicates": 0
        },
        "valid_le_with_header.fau": {
            "bbox": {
                "min_n": 613724667,
                "min_e": 62834142,
                "max_n": 613725332,
                "max_e": 62841017
            },
            "nr_of_flagged_outliers": 0,
            "nr_of_unflagged_outliers": 0,
            "nr_of_flagged_duplicates": 0,
            "nr_of_unflagged_duplicates": 0
        }
    },
    "root_path": "TEST",
    "bbox": {
        "min_n": 613723607,
        "min_e": 52828028,
        "max_n": 696424087,
        "max_e": 62858062
    }
}